sim/tb_instruction_mem.vcd
$date
	Thu Jul 16 04:18:01 2026
$end
$version
	Icarus Verilog
$end
$timescale
	1ps
$end
$scope module tb_instruction_mem $end
$var wire 32 ! instruction [31:0] $end
$var reg 32 " address [31:0] $end
$var integer 32 # i [31:0] $end
$scope module dut $end
$var wire 32 $ address [31:0] $end
$var wire 32 % instruction [31:0] $end
$upscope $end
$upscope $end
$enddefinitions $end
$comment Show the parameter values. $end
$dumpall
$end
#0
$dumpvars
b1000001000000110110011 %
b0 $
bx #
b0 "
b1000001000000110110011 !
$end
#20000
b0 #
#30000
b1000000001000001000001000110011 !
b1000000001000001000001000110011 %
b100 "
b100 $
b1 #
#40000
b1000001111001010110011 !
b1000001111001010110011 %
b1000 "
b1000 $
b10 #
#50000
b1000001110001100110011 !
b1000001110001100110011 %
b1100 "
b1100 $
b11 #
#60000
b1100000010010000100011 !
b1100000010010000100011 %
b10000 "
b10000 $
b100 #
#70000
b10000000010011000100011 !
b10000000010011000100011 %
b10100 "
b10100 $
b101 #
#80000
b10100000010100000100011 !
b10100000010100000100011 %
b11000 "
b11000 $
b110 #
#90000
b11000000010101000100011 !
b11000000010101000100011 %
b11100 "
b11100 $
b111 #
#100000
b1010001100011 !
b1010001100011 %
b100000 "
b100000 $
b1000 #
#110000
b11111101110111111111000001101111 !
b11111101110111111111000001101111 %
b100100 "
b100100 $
b1001 #
#120000
b1000001000000110110011 !
b1000001000000110110011 %
b11 "
b11 $
b1010 #
